<svg xmlns="http://www.w3.org/2000/svg" viewBox="0 0 440.28 305.59">
    <g>
        <path fill="currentColor"
              d="M257.82,17.07V35.51c0,2.43-1.87,4.64-4.78,5.65l-6.19,2.15-11.42,4-8.22,2.86-7.07,2.45,5.15-3.91,8.43-6.42a4,4,0,0,0,1.71-3.13V13.46a4,4,0,0,0-1.71-3.13L220.14,0l.47.16h0l14.81,5.15L253,11.42C256,12.43,257.82,14.64,257.82,17.07Z"/>
        <path fill="currentColor"
              d="M206.55,141.77l13.58,10.33-.48-.16-14.81-5.15-17.61-6.12c-2.91-1-4.77-3.22-4.77-5.64V100.45l11,8.34,11.41,8.67v21.18A4,4,0,0,0,206.55,141.77Z"/>
        <path fill="currentColor"
              d="M257.82,114.42V135c0,.16,0,.31,0,.46s0,.27-.06.42a6.73,6.73,0,0,1-4.7,4.77l-17.61,6.11-15.09,5.25-.17,0,13.55-10.33a3.93,3.93,0,0,0,1.71-3.13V120.81a4,4,0,0,0-1.71-3.14l-13.58-10.33L215,103.42,213.06,102l-8.22-6.25-3.3-2.5h0L184.85,80.52a5.55,5.55,0,0,1-2.39-4.39V17a2.11,2.11,0,0,1,0-.36c.22-2.25,2-4.25,4.75-5.2L204.84,5.3,219.94.06,220.1,0,206.55,10.32A4,4,0,0,0,204.88,13a2.31,2.31,0,0,0,0,.37V69.74a4,4,0,0,0,1.71,3.14l28.88,22,20,15.2A5.53,5.53,0,0,1,257.82,114.42Z"/>
        <path fill="currentColor"
              d="M257.82,69.5V90.07l-22.39-17V66.14A4,4,0,0,0,233.74,63l-13.6-10.43,15.29,5.15,3.31,1.15,14.3,5C256,64.87,257.82,67.08,257.82,69.5Z"/>
        <path fill="currentColor"
              d="M0,202.85H22.93q13.65,0,19.42,6.58t5.76,19.23q0,9.65-3.13,15.91t-10.9,7.89l15.54,51.88H40.35L25.43,254.47H9.52v49.87H0Zm22.43,44.6q9.13,0,12.78-4.51c2.42-3,3.63-7.77,3.63-14.28s-1.15-11.36-3.44-14.28S28.86,210,22.68,210H9.52v37.46Z"/>
        <path fill="currentColor"
              d="M111.07,297.45q-6-8.15-5.95-23.06v-42.1q0-14.78,6-22.61t20.17-7.83q13.91,0,19.92,7.89t6,22.55v42.23q0,14.91-5.88,23t-20.05,8.08Q117,305.59,111.07,297.45Zm33-4.95q3.51-5.46,3.51-16v-46q0-10.53-3.45-15.79t-12.84-5.26q-9.53,0-13,5.2t-3.51,15.85v46q0,10.65,3.51,16t13,5.39Q140.58,298,144.09,292.5Z"/>
        <path fill="currentColor"
              d="M216.13,202.85h22.05q15,0,21.3,7.7t6.27,22.12V273q0,15.17-6.08,23.24t-20.61,8.09H216.13Zm22.3,94.35q7.65,0,11.47-3.2a14.68,14.68,0,0,0,4.95-8.52,70.09,70.09,0,0,0,1.12-14V233.67a51.46,51.46,0,0,0-1.37-13.22,13,13,0,0,0-5.27-7.58q-3.89-2.62-11.27-2.63H225.65v87Z"/>
        <path fill="currentColor" d="M324.76,202.85h9.52V304.34h-9.52Z"/>
        <path fill="currentColor"
              d="M398.81,298.26q-6.27-7.33-7.14-20.24l8.39-2.5q1.13,10.77,4.82,16.54t12.22,5.76q14.28,0,14.28-14.66a20.54,20.54,0,0,0-2.94-11,57.26,57.26,0,0,0-9.46-10.9l-17.92-17.17a29.33,29.33,0,0,1-7.08-9.46,26.78,26.78,0,0,1-2.19-11q0-10.41,6.2-16.1t16.73-5.7q11.28,0,17.29,6t7,19.67l-8.15,2.13q-.75-10.28-4.32-15.28t-11.84-5q-6.51,0-10.4,3.39t-3.88,10a17.31,17.31,0,0,0,1.63,7.64,26,26,0,0,0,5.51,7.15l17.92,16.91a59.68,59.68,0,0,1,10.83,13.34,28.87,28.87,0,0,1,3.95,14.73q0,11-6.39,17t-16.91,6Q405.07,305.59,398.81,298.26Z"/>
    </g>
</svg>