<svg xmlns="http://www.w3.org/2000/svg" viewBox="0 0 500.67 523.32">
    <g>
        <path fill="currentColor"
              d="M250.33,257.32C112.3,257.32,0,369.62,0,507.66a15.67,15.67,0,0,0,31.33,0c0-120.76,98.25-219,219-219s219,98.24,219,219a15.67,15.67,0,0,0,31.34,0C500.67,369.62,388.37,257.32,250.33,257.32Z"/>
        <path fill="currentColor"
              d="M250.33,244.67A122.34,122.34,0,1,0,128,122.33,122.48,122.48,0,0,0,250.33,244.67Zm-91-122.34a91,91,0,1,1,91,91A91.11,91.11,0,0,1,159.33,122.33Z"/>
    </g>
</svg>